﻿# Tiled2Unity generated file. Do not modify by hand.
# Wavefront file for 'kingdom_mesh_0004.obj'

# Vertices (Count = 16)
v -5.76 -2.56 0
v -6.08 -2.56 0
v -6.08 -2.24 0
v -5.76 -2.24 0
v -6.08 -2.56 0
v -6.4 -2.56 0
v -6.4 -2.24 0
v -6.08 -2.24 0
v -5.76 -2.88 0
v -6.08 -2.88 0
v -6.08 -2.56 0
v -5.76 -2.56 0
v -6.08 -2.88 0
v -6.4 -2.88 0
v -6.4 -2.56 0
v -6.08 -2.56 0

# Texture cooridinates (Count = 9)
vt 0.3125 0.6875
vt 0.34375 0.6875
vt 0.34375 0.71875
vt 0.3125 0.71875
vt 0.375 0.6875
vt 0.375 0.71875
vt 0.3125 0.65625
vt 0.34375 0.65625
vt 0.375 0.65625

# Normal
vn 0 0 -1

# Mesh description
g kingdom_mesh_0004

# Faces
f 1/1/1 2/2/1 3/3/1 4/4/1
f 5/2/1 6/5/1 7/6/1 8/3/1
f 9/7/1 10/8/1 11/2/1 12/1/1
f 13/8/1 14/9/1 15/5/1 16/2/1

