﻿# Tiled2Unity generated file. Do not modify by hand.
# Wavefront file for 'right-side-kingdom-1_mesh_0004.obj'

# Vertices (Count = 116)
v 0 -0.32 0
v -0.32 -0.32 0
v -0.32 0 0
v 0 0 0
v -0.32 -0.32 0
v -0.64 -0.32 0
v -0.64 0 0
v -0.32 0 0
v -0.64 -0.32 0
v -0.96 -0.32 0
v -0.96 0 0
v -0.64 0 0
v -0.96 -0.32 0
v -1.28 -0.32 0
v -1.28 0 0
v -0.96 0 0
v -1.28 -0.32 0
v -1.6 -0.32 0
v -1.6 0 0
v -1.28 0 0
v -1.6 -0.32 0
v -1.92 -0.32 0
v -1.92 0 0
v -1.6 0 0
v -1.92 -0.32 0
v -2.24 -0.32 0
v -2.24 0 0
v -1.92 0 0
v 0 -0.64 0
v -0.32 -0.64 0
v -0.32 -0.32 0
v 0 -0.32 0
v -0.32 -0.64 0
v -0.64 -0.64 0
v -0.64 -0.32 0
v -0.32 -0.32 0
v -0.64 -0.64 0
v -0.96 -0.64 0
v -0.96 -0.32 0
v -0.64 -0.32 0
v -0.96 -0.64 0
v -1.28 -0.64 0
v -1.28 -0.32 0
v -0.96 -0.32 0
v -1.28 -0.64 0
v -1.6 -0.64 0
v -1.6 -0.32 0
v -1.28 -0.32 0
v -1.6 -0.64 0
v -1.92 -0.64 0
v -1.92 -0.32 0
v -1.6 -0.32 0
v -1.92 -0.64 0
v -2.24 -0.64 0
v -2.24 -0.32 0
v -1.92 -0.32 0
v -1.28 -1.28 0
v -1.6 -1.28 0
v -1.6 -0.96 0
v -1.28 -0.96 0
v -5.12 -1.28 0
v -5.44 -1.28 0
v -5.44 -0.96 0
v -5.12 -0.96 0
v -5.76 -1.28 0
v -6.08 -1.28 0
v -6.08 -0.96 0
v -5.76 -0.96 0
v -4.16 -1.92 0
v -4.48 -1.92 0
v -4.48 -1.6 0
v -4.16 -1.6 0
v -0.32 -2.56 0
v -0.64 -2.56 0
v -0.64 -2.24 0
v -0.32 -2.24 0
v -5.44 -2.56 0
v -5.76 -2.56 0
v -5.76 -2.24 0
v -5.44 -2.24 0
v -5.12 -2.88 0
v -5.44 -2.88 0
v -5.44 -2.56 0
v -5.12 -2.56 0
v -5.44 -2.88 0
v -5.76 -2.88 0
v -5.76 -2.56 0
v -5.44 -2.56 0
v -2.24 -3.2 0
v -2.56 -3.2 0
v -2.56 -2.88 0
v -2.24 -2.88 0
v -3.2 -3.2 0
v -3.52 -3.2 0
v -3.52 -2.88 0
v -3.2 -2.88 0
v -4.16 -3.2 0
v -4.48 -3.2 0
v -4.48 -2.88 0
v -4.16 -2.88 0
v -5.12 -3.2 0
v -5.44 -3.2 0
v -5.44 -2.88 0
v -5.12 -2.88 0
v -5.44 -3.2 0
v -5.76 -3.2 0
v -5.76 -2.88 0
v -5.44 -2.88 0
v -5.44 -3.52 0
v -5.76 -3.52 0
v -5.76 -3.2 0
v -5.44 -3.2 0
v -5.44 -4.16 0
v -5.76 -4.16 0
v -5.76 -3.84 0
v -5.44 -3.84 0

# Texture cooridinates (Count = 45)
vt 0.25 0.40625
vt 0.28125 0.40625
vt 0.28125 0.4375
vt 0.25 0.4375
vt 0.3125 0.40625
vt 0.34375 0.40625
vt 0.34375 0.4375
vt 0.3125 0.4375
vt 0.375 0.40625
vt 0.375 0.4375
vt 0.25 0.5
vt 0.28125 0.5
vt 0.28125 0.53125
vt 0.25 0.53125
vt 0.3125 0.5
vt 0.3125 0.53125
vt 0.1875 0.25
vt 0.21875 0.25
vt 0.21875 0.28125
vt 0.1875 0.28125
vt 0.34375 0.375
vt 0.375 0.375
vt 0.1875 0.03125
vt 0.21875 0.03125
vt 0.21875 0.0625
vt 0.1875 0.0625
vt 0.40625 0.125
vt 0.4375 0.125
vt 0.4375 0.15625
vt 0.40625 0.15625
vt 0.46875 0.5
vt 0.5 0.5
vt 0.5 0.53125
vt 0.46875 0.53125
vt 0.1875 0
vt 0.21875 0
vt 0.375 0.59375
vt 0.40625 0.59375
vt 0.40625 0.625
vt 0.375 0.625
vt 0.4375 0.59375
vt 0.4375 0.625
vt 0.375 0.5625
vt 0.40625 0.5625
vt 0.4375 0.5625

# Normal
vn 0 0 -1

# Mesh description
g right-side-kingdom-1_mesh_0004

# Faces
f 1/1/1 2/2/1 3/3/1 4/4/1
f 5/5/1 6/6/1 7/7/1 8/8/1
f 9/5/1 10/6/1 11/7/1 12/8/1
f 13/5/1 14/6/1 15/7/1 16/8/1
f 17/5/1 18/6/1 19/7/1 20/8/1
f 21/5/1 22/6/1 23/7/1 24/8/1
f 25/6/1 26/9/1 27/10/1 28/7/1
f 29/11/1 30/12/1 31/13/1 32/14/1
f 33/12/1 34/15/1 35/16/1 36/13/1
f 37/17/1 38/18/1 39/19/1 40/20/1
f 41/17/1 42/18/1 43/19/1 44/20/1
f 45/17/1 46/18/1 47/19/1 48/20/1
f 49/12/1 50/15/1 51/16/1 52/13/1
f 53/21/1 54/22/1 55/9/1 56/6/1
f 57/23/1 58/24/1 59/25/1 60/26/1
f 61/27/1 62/28/1 63/29/1 64/30/1
f 65/31/1 66/32/1 67/33/1 68/34/1
f 69/27/1 70/28/1 71/29/1 72/30/1
f 73/35/1 74/36/1 75/24/1 76/23/1
f 77/31/1 78/32/1 79/33/1 80/34/1
f 81/37/1 82/38/1 83/39/1 84/40/1
f 85/38/1 86/41/1 87/42/1 88/39/1
f 89/31/1 90/32/1 91/33/1 92/34/1
f 93/27/1 94/28/1 95/29/1 96/30/1
f 97/31/1 98/32/1 99/33/1 100/34/1
f 101/43/1 102/44/1 103/38/1 104/37/1
f 105/44/1 106/45/1 107/41/1 108/38/1
f 109/31/1 110/32/1 111/33/1 112/34/1
f 113/31/1 114/32/1 115/33/1 116/34/1

