﻿# Tiled2Unity generated file. Do not modify by hand.
# Wavefront file for '2nd-area_mesh_0003.obj'

# Vertices (Count = 100)
v -1.28 -0.64 0
v -1.6 -0.64 0
v -1.6 -0.32 0
v -1.28 -0.32 0
v -1.6 -0.64 0
v -1.92 -0.64 0
v -1.92 -0.32 0
v -1.6 -0.32 0
v -1.92 -0.64 0
v -2.24 -0.64 0
v -2.24 -0.32 0
v -1.92 -0.32 0
v -1.28 -0.96 0
v -1.6 -0.96 0
v -1.6 -0.64 0
v -1.28 -0.64 0
v -1.6 -0.96 0
v -1.92 -0.96 0
v -1.92 -0.64 0
v -1.6 -0.64 0
v -1.92 -0.96 0
v -2.24 -0.96 0
v -2.24 -0.64 0
v -1.92 -0.64 0
v -1.28 -1.28 0
v -1.6 -1.28 0
v -1.6 -0.96 0
v -1.28 -0.96 0
v -1.6 -1.28 0
v -1.92 -1.28 0
v -1.92 -0.96 0
v -1.6 -0.96 0
v -1.92 -1.28 0
v -2.24 -1.28 0
v -2.24 -0.96 0
v -1.92 -0.96 0
v -0.64 -1.6 0
v -0.96 -1.6 0
v -0.96 -1.28 0
v -0.64 -1.28 0
v -0.96 -1.6 0
v -1.28 -1.6 0
v -1.28 -1.28 0
v -0.96 -1.28 0
v -1.28 -1.6 0
v -1.6 -1.6 0
v -1.6 -1.28 0
v -1.28 -1.28 0
v -1.92 -1.6 0
v -2.24 -1.6 0
v -2.24 -1.28 0
v -1.92 -1.28 0
v -0.64 -1.92 0
v -0.96 -1.92 0
v -0.96 -1.6 0
v -0.64 -1.6 0
v -0.96 -1.92 0
v -1.28 -1.92 0
v -1.28 -1.6 0
v -0.96 -1.6 0
v -1.28 -1.92 0
v -1.6 -1.92 0
v -1.6 -1.6 0
v -1.28 -1.6 0
v -1.6 -1.92 0
v -1.92 -1.92 0
v -1.92 -1.6 0
v -1.6 -1.6 0
v -1.92 -1.92 0
v -2.24 -1.92 0
v -2.24 -1.6 0
v -1.92 -1.6 0
v -2.24 -1.92 0
v -2.56 -1.92 0
v -2.56 -1.6 0
v -2.24 -1.6 0
v -2.56 -1.92 0
v -2.88 -1.92 0
v -2.88 -1.6 0
v -2.56 -1.6 0
v -0.64 -2.24 0
v -0.96 -2.24 0
v -0.96 -1.92 0
v -0.64 -1.92 0
v -0.96 -2.24 0
v -1.28 -2.24 0
v -1.28 -1.92 0
v -0.96 -1.92 0
v -1.28 -2.24 0
v -1.6 -2.24 0
v -1.6 -1.92 0
v -1.28 -1.92 0
v -1.6 -2.24 0
v -1.92 -2.24 0
v -1.92 -1.92 0
v -1.6 -1.92 0
v -1.92 -2.24 0
v -2.24 -2.24 0
v -2.24 -1.92 0
v -1.92 -1.92 0

# Texture cooridinates (Count = 48)
vt 0 0.59375
vt 0.03125 0.59375
vt 0.03125 0.625
vt 0 0.625
vt 0.0625 0.59375
vt 0.0625 0.625
vt 0.09375 0.59375
vt 0.09375 0.625
vt 0 0.5625
vt 0.03125 0.5625
vt 0.0625 0.5625
vt 0.09375 0.5625
vt 0 0.53125
vt 0.03125 0.53125
vt 0.0625 0.53125
vt 0.09375 0.53125
vt 0.34375 0.34375
vt 0.375 0.34375
vt 0.375 0.375
vt 0.34375 0.375
vt 0.40625 0.34375
vt 0.40625 0.375
vt 0 0.6875
vt 0.03125 0.6875
vt 0.03125 0.71875
vt 0 0.71875
vt 0.0625 0.6875
vt 0.09375 0.6875
vt 0.09375 0.71875
vt 0.0625 0.71875
vt 0.34375 0.3125
vt 0.375 0.3125
vt 0.40625 0.3125
vt 0 0.65625
vt 0.03125 0.65625
vt 0.125 0.6875
vt 0.125 0.71875
vt 0.0625 0.65625
vt 0.09375 0.65625
vt 0.6875 0.4375
vt 0.71875 0.4375
vt 0.71875 0.46875
vt 0.6875 0.46875
vt 0.34375 0.28125
vt 0.375 0.28125
vt 0.40625 0.28125
vt 0.15625 0.6875
vt 0.15625 0.71875

# Normal
vn 0 0 -1

# Mesh description
g 2nd-area_mesh_0003

# Faces
f 1/1/1 2/2/1 3/3/1 4/4/1
f 5/2/1 6/5/1 7/6/1 8/3/1
f 9/5/1 10/7/1 11/8/1 12/6/1
f 13/9/1 14/10/1 15/2/1 16/1/1
f 17/10/1 18/11/1 19/5/1 20/2/1
f 21/11/1 22/12/1 23/7/1 24/5/1
f 25/13/1 26/14/1 27/10/1 28/9/1
f 29/14/1 30/15/1 31/11/1 32/10/1
f 33/15/1 34/16/1 35/12/1 36/11/1
f 37/17/1 38/18/1 39/19/1 40/20/1
f 41/18/1 42/21/1 43/22/1 44/19/1
f 45/23/1 46/24/1 47/25/1 48/26/1
f 49/27/1 50/28/1 51/29/1 52/30/1
f 53/31/1 54/32/1 55/18/1 56/17/1
f 57/32/1 58/33/1 59/21/1 60/18/1
f 61/34/1 62/35/1 63/24/1 64/23/1
f 65/28/1 66/36/1 67/37/1 68/29/1
f 69/38/1 70/39/1 71/28/1 72/27/1
f 73/40/1 74/41/1 75/42/1 76/43/1
f 77/40/1 78/41/1 79/42/1 80/43/1
f 81/44/1 82/45/1 83/32/1 84/31/1
f 85/45/1 86/46/1 87/33/1 88/32/1
f 89/4/1 90/3/1 91/35/1 92/34/1
f 93/36/1 94/47/1 95/48/1 96/37/1
f 97/6/1 98/8/1 99/39/1 100/38/1

