﻿# Tiled2Unity generated file. Do not modify by hand.
# Wavefront file for 'beginning-map_mesh_0004.obj'

# Vertices (Count = 92)
v -6.08 -0.96 0
v -6.4 -0.96 0
v -6.4 -0.64 0
v -6.08 -0.64 0
v -0.96 -1.28 0
v -1.28 -1.28 0
v -1.28 -0.96 0
v -0.96 -0.96 0
v -1.28 -1.28 0
v -1.6 -1.28 0
v -1.6 -0.96 0
v -1.28 -0.96 0
v -1.6 -1.28 0
v -1.92 -1.28 0
v -1.92 -0.96 0
v -1.6 -0.96 0
v -0.96 -1.6 0
v -1.28 -1.6 0
v -1.28 -1.28 0
v -0.96 -1.28 0
v -1.28 -1.6 0
v -1.6 -1.6 0
v -1.6 -1.28 0
v -1.28 -1.28 0
v -1.6 -1.6 0
v -1.92 -1.6 0
v -1.92 -1.28 0
v -1.6 -1.28 0
v -0.96 -1.92 0
v -1.28 -1.92 0
v -1.28 -1.6 0
v -0.96 -1.6 0
v -1.28 -1.92 0
v -1.6 -1.92 0
v -1.6 -1.6 0
v -1.28 -1.6 0
v -1.6 -1.92 0
v -1.92 -1.92 0
v -1.92 -1.6 0
v -1.6 -1.6 0
v -5.44 -2.24 0
v -5.76 -2.24 0
v -5.76 -1.92 0
v -5.44 -1.92 0
v -0.96 -2.88 0
v -1.28 -2.88 0
v -1.28 -2.56 0
v -0.96 -2.56 0
v 0 -3.2 0
v -0.32 -3.2 0
v -0.32 -2.88 0
v 0 -2.88 0
v -1.92 -3.84 0
v -2.24 -3.84 0
v -2.24 -3.52 0
v -1.92 -3.52 0
v -4.48 -4.16 0
v -4.8 -4.16 0
v -4.8 -3.84 0
v -4.48 -3.84 0
v -4.8 -4.16 0
v -5.12 -4.16 0
v -5.12 -3.84 0
v -4.8 -3.84 0
v -5.12 -4.16 0
v -5.44 -4.16 0
v -5.44 -3.84 0
v -5.12 -3.84 0
v -4.48 -4.48 0
v -4.8 -4.48 0
v -4.8 -4.16 0
v -4.48 -4.16 0
v -4.8 -4.48 0
v -5.12 -4.48 0
v -5.12 -4.16 0
v -4.8 -4.16 0
v -5.12 -4.48 0
v -5.44 -4.48 0
v -5.44 -4.16 0
v -5.12 -4.16 0
v -4.48 -4.8 0
v -4.8 -4.8 0
v -4.8 -4.48 0
v -4.48 -4.48 0
v -4.8 -4.8 0
v -5.12 -4.8 0
v -5.12 -4.48 0
v -4.8 -4.48 0
v -5.12 -4.8 0
v -5.44 -4.8 0
v -5.44 -4.48 0
v -5.12 -4.48 0

# Texture cooridinates (Count = 22)
vt 0.46875 0.5
vt 0.5 0.5
vt 0.5 0.53125
vt 0.46875 0.53125
vt 0.1875 0.625
vt 0.21875 0.625
vt 0.21875 0.65625
vt 0.1875 0.65625
vt 0.25 0.625
vt 0.25 0.65625
vt 0.28125 0.625
vt 0.28125 0.65625
vt 0.1875 0.59375
vt 0.21875 0.59375
vt 0.25 0.59375
vt 0.28125 0.59375
vt 0.1875 0.5625
vt 0.21875 0.5625
vt 0.25 0.5625
vt 0.28125 0.5625
vt 0.53125 0.5
vt 0.53125 0.53125

# Normal
vn 0 0 -1

# Mesh description
g beginning-map_mesh_0004

# Faces
f 1/1/1 2/2/1 3/3/1 4/4/1
f 5/5/1 6/6/1 7/7/1 8/8/1
f 9/6/1 10/9/1 11/10/1 12/7/1
f 13/9/1 14/11/1 15/12/1 16/10/1
f 17/13/1 18/14/1 19/6/1 20/5/1
f 21/14/1 22/15/1 23/9/1 24/6/1
f 25/15/1 26/16/1 27/11/1 28/9/1
f 29/17/1 30/18/1 31/14/1 32/13/1
f 33/18/1 34/19/1 35/15/1 36/14/1
f 37/19/1 38/20/1 39/16/1 40/15/1
f 41/1/1 42/2/1 43/3/1 44/4/1
f 45/2/1 46/21/1 47/22/1 48/3/1
f 49/2/1 50/21/1 51/22/1 52/3/1
f 53/2/1 54/21/1 55/22/1 56/3/1
f 57/5/1 58/6/1 59/7/1 60/8/1
f 61/6/1 62/9/1 63/10/1 64/7/1
f 65/9/1 66/11/1 67/12/1 68/10/1
f 69/13/1 70/14/1 71/6/1 72/5/1
f 73/14/1 74/15/1 75/9/1 76/6/1
f 77/15/1 78/16/1 79/11/1 80/9/1
f 81/17/1 82/18/1 83/14/1 84/13/1
f 85/18/1 86/19/1 87/15/1 88/14/1
f 89/19/1 90/20/1 91/16/1 92/15/1

